<svg width="128" height="49" viewBox="0 0 128 49" fill="none" xmlns="http://www.w3.org/2000/svg">
<path fill-rule="evenodd" clip-rule="evenodd" d="M50.9919 44.1323C50.9919 43.331 51.6469 42.8047 52.3562 42.8047C53.0315 42.8047 53.7095 43.2785 53.7095 44.1323C53.7095 44.9749 53.0527 45.459 52.3562 45.459C51.6469 45.459 50.9919 44.9223 50.9919 44.1323ZM53.7095 46.5971H55V41.6769H53.7095V42.2877C53.3497 41.7397 52.6201 41.5718 52.1754 41.5718C50.8757 41.5718 49.6608 42.5513 49.6608 44.1323C49.6608 45.702 50.8757 46.6928 52.1754 46.6928C52.6634 46.6928 53.3922 46.4704 53.7095 45.9657V46.5971ZM45.4525 43.9737C45.4525 43.1199 45.9497 42.8253 46.5309 42.8253C47.0917 42.8253 47.4727 43.2044 47.4727 43.9212V46.5971H48.7614V43.6894C48.7614 42.2989 48.0742 41.5718 46.9229 41.5718C46.3519 41.5718 45.7274 41.8767 45.4525 42.404V41.6769H44.1638V46.5971H45.4525V43.9737ZM38.9031 44.1323C38.9031 43.331 39.5589 42.8047 40.2674 42.8047C40.9435 42.8047 41.6206 43.2785 41.6206 44.1323C41.6206 44.9749 40.9648 45.459 40.2674 45.459C39.5589 45.459 38.9031 44.9223 38.9031 44.1323ZM41.6206 46.5971H42.9102V41.6769H41.6206V42.2877C41.2609 41.7397 40.5312 41.5718 40.0884 41.5718C38.7877 41.5718 37.571 42.5513 37.571 44.1323C37.571 45.702 38.7877 46.6928 40.0884 46.6928C40.5736 46.6928 41.3033 46.4704 41.6206 45.9657V46.5971ZM34.4531 42.8253C34.9826 42.8253 35.3829 43.2147 35.3829 43.9212V46.5971H36.6633V43.7842C36.6633 42.3412 35.9539 41.5718 34.7594 41.5718C34.3682 41.5718 33.6718 41.6872 33.2059 42.4988C32.931 41.8974 32.4126 41.6243 31.6313 41.5821C31.1655 41.5821 30.4874 41.8026 30.2144 42.404V41.6769H28.9229V46.5971H30.2144V43.9737C30.2144 43.1312 30.7208 42.8253 31.2503 42.8253C31.7567 42.8253 32.1488 43.2044 32.1589 43.8893V46.5971H33.4485V43.9737C33.4485 43.2259 33.872 42.8253 34.4531 42.8253ZM26.3806 44.3002C26.3806 45.1541 25.8521 45.4496 25.3134 45.4496C24.8595 45.4496 24.3724 45.1541 24.3724 44.3528V41.6769H23.0718V44.5855C23.0718 45.976 23.854 46.7031 25.0182 46.7031C25.5135 46.7031 26.1058 46.4282 26.3806 45.9019V46.5971H27.6712V41.6769H26.3806V44.3002ZM20.2906 39.3368V42.3824H17.3728V39.3368H16.0297V46.5971H17.3728V43.5947H20.2906V46.5971H21.654V39.3368H20.2906ZM12.6138 41.6769H11.2403L10.0033 44.7431L8.77732 41.6769H7.40193L9.32619 46.2181L8.19525 49H9.55865L12.6138 41.6769ZM3.28868 46.5971V45.9338C3.5525 46.4282 4.18808 46.7031 4.83196 46.7031C6.12156 46.7031 7.25342 45.702 7.25342 44.1426C7.25342 42.5729 6.13263 41.5718 4.83196 41.5718C4.17609 41.5718 3.5525 41.8345 3.28868 42.3299V39H2V46.5971H3.28868ZM3.31082 44.121C3.31082 43.2785 3.95562 42.7934 4.62071 42.7934C5.34023 42.7934 5.9223 43.3198 5.9223 44.121C5.9223 44.9326 5.34023 45.4693 4.62071 45.4693C3.92333 45.4693 3.31082 44.943 3.31082 44.121Z" fill="#78be21"/>
<path fill-rule="evenodd" clip-rule="evenodd" d="M125.807 17.3994C127.386 17.9569 128.28 19.5052 127.921 21.0233C127.598 22.3824 127.06 23.8896 126.44 25.4662C125.007 24.9626 121.777 23.8091 121.777 23.8091C122.233 22.6612 122.205 22.7151 122.607 21.675C122.324 21.5982 121.953 21.5982 121.451 21.6723C118.478 22.1137 113.446 26.0338 112.372 28.1185C111.533 29.7509 109.813 33.4553 109.538 34L105 32.4344C105.25 31.7644 105.503 31.2178 105.765 30.7563C106.774 28.3224 108.746 23.439 108.942 17.4387L113.806 17.032C113.806 17.032 113.609 18.8435 113.253 21.4959C116.809 18.466 120.891 17 123.427 17C124.281 17 125.084 17.1444 125.807 17.3994Z" fill="#fff"/>
<path fill-rule="evenodd" clip-rule="evenodd" d="M78.5253 29.6079C77.742 29.2706 77.742 28.4676 78.2786 27.3705C79.1032 25.6803 80.8332 22.547 80.1764 19.8497C79.6343 17.622 77.4126 16.0917 74.7296 16.0917C74.7296 16.0917 70.9632 15.8072 67.4775 18.4814C70.1505 13.0591 73.9673 6.82131 76.976 1.73144L72.8895 0C72.8895 0 68.9764 6.62488 66.3612 11.4062C64.5706 14.6794 62.6076 18.5303 59.9291 23.9546C59.5365 24.748 58.5459 26.2274 57.3901 27.452C56.2343 28.5922 54.9143 29.4795 53.7586 29.3099C52.4799 29.0991 52.356 27.6628 53.1394 25.8048C54.4062 22.7636 57.036 18.1336 59.7714 13.0428L63.3304 13.0505L65.2467 9.16407L61.883 9.15832C62.8837 7.33681 63.9111 5.49231 64.9339 3.67463L60.7657 2.154C59.864 3.76758 58.4404 6.29814 56.8654 9.14874L42.8988 9.12287L41 13.0083L54.7391 13.0342C51.9992 18.0963 49.0162 23.3375 48.1053 25.9735C46.7853 29.8168 48.2713 32.7737 51.2828 33.5757C52.8064 33.9858 55.0391 33.7012 57.2718 32.5917L60.7345 33.914C61.7573 31.4169 62.5076 29.766 63.7662 27.3705C65.6246 23.8367 70.2945 20.9938 73.0996 20.6134C75.0396 20.3595 75.8019 21.7086 74.8534 23.8626C73.6976 26.4382 72.7895 28.4188 73.2537 30.4789C73.5738 31.897 74.3168 32.8599 75.9266 33.5786C77.63 34.326 80.1838 34.0126 82 33.1608L81.3717 29.3013C80.1095 29.833 79.0794 29.8417 78.5253 29.6079Z" fill="#fff"/>
<path fill-rule="evenodd" clip-rule="evenodd" d="M6.52603 29.3179C4.04041 28.8646 4.49267 25.2279 6.74205 23.2511C8.79564 21.4467 11.2353 20.8552 14.1704 21.034C15.2101 21.0981 16.771 21.4648 17.9954 21.8919C15.5033 26.6457 9.49794 29.8588 6.52603 29.3179ZM19.7511 27.4522C22.2984 22.7065 25 18.2742 25 18.2742L20.9471 17C20.9471 17 20.55 17.6177 20.1758 18.2038C18.4945 17.5879 16.3408 17.1887 14.915 17.0939C9.01166 16.7047 3.87678 18.938 1.51893 22.6063C-1.26912 26.9446 -0.157762 32.2177 4.34927 33.5316C7.24672 34.3625 11.466 33.7854 15.2983 30.3275C15.3866 30.7059 15.4739 30.9913 15.5401 31.1719C16.1312 32.8047 17.4512 34.0301 20.2365 33.9994C20.9029 33.9922 21.8286 33.8179 22.5815 33.5064L22.0198 30.1505C19.3568 30.6897 18.9266 28.9883 19.7511 27.4522Z" fill="#fff"/>
<path fill-rule="evenodd" clip-rule="evenodd" d="M99.8145 26.2609C98.0244 29.1494 93.9515 30.1364 91.3329 29.5898C88.9646 29.0958 87.6258 26.9864 89.0782 24.4829C90.451 22.1166 94.5365 20.5411 97.8081 21.2576C100.123 21.7643 101.309 23.8518 99.8145 26.2609ZM100.778 17.699C94.4676 15.7022 87.2503 18.1984 84.3989 22.4625C81.5009 26.8048 83.3957 31.2996 87.4249 33.0112C92.3953 35.1224 101.409 34.0528 104.981 27.8527C107.162 24.087 105.879 19.3116 100.778 17.699Z" fill="#fff"/>
<path fill-rule="evenodd" clip-rule="evenodd" d="M46.7649 30.2041L47.3876 33.699C45.6089 34.1676 44.0191 34.0177 43.0684 33.7313C41.8643 33.3678 40.3092 32.4063 40.0165 30.4581C36.1627 33.6856 31.9058 34.481 28.7513 33.5715C25.5383 32.6451 24.6605 29.9348 25.1095 27.6141C25.5451 25.3652 27.4024 22.8497 30.8985 17.0718L35.4834 18.4229C34.1019 20.8756 32.304 23.304 30.8399 26.3366C30.1098 27.8502 30.1012 29.0837 31.3033 29.5299C33.7805 30.4483 37.9049 28.3161 41.186 23.3821C43.951 19.3377 45.5522 17 45.5522 17L50 18.4965C47.0336 23.5051 45.6146 25.3428 44.6236 27.2424C43.974 28.4687 43.8666 29.4204 44.6005 29.9348C45.1042 30.3037 45.9456 30.3621 46.7649 30.2041Z" fill="#fff"/>
</svg>
